simulation/qsim/sap_wr.msim.vcd
$comment
	File created using the following command:
		vcd file sap_wr.msim.vcd -direction
$end
$date
	Tue Mar 14 23:15:19 2023
$end
$version
	ModelSim Version 10.5b
$end
$timescale
	1ps
$end

$scope module cp_b_register_vlg_vec_tst $end
$var reg 1 ! BR_IN $end
$var reg 1 " BR_OUT $end
$var reg 1 # treg_bus0 $end
$var reg 1 $ treg_bus1 $end
$var reg 1 % treg_bus2 $end
$var reg 1 & treg_bus3 $end
$var reg 1 ' treg_bus4 $end
$var reg 1 ( treg_bus5 $end
$var reg 1 ) treg_bus6 $end
$var reg 1 * treg_bus7 $end
$var reg 1 + CLOCK $end
$var reg 1 , RESET $end
$var wire 1 - bus0 $end
$var wire 1 . bus1 $end
$var wire 1 / bus2 $end
$var wire 1 0 bus3 $end
$var wire 1 1 bus4 $end
$var wire 1 2 bus5 $end
$var wire 1 3 bus6 $end
$var wire 1 4 bus7 $end

$scope module i1 $end
$var wire 1 5 gnd $end
$var wire 1 6 vcc $end
$var wire 1 7 unknown $end
$var tri1 1 8 devclrn $end
$var tri1 1 9 devpor $end
$var tri1 1 : devoe $end
$var wire 1 ; ~QUARTUS_CREATED_GND~I_combout $end
$var wire 1 < ~QUARTUS_CREATED_UNVM~~busy $end
$var wire 1 = ~QUARTUS_CREATED_ADC1~~eoc $end
$var wire 1 > ~QUARTUS_CREATED_ADC2~~eoc $end
$var wire 1 ? bus0~output_o $end
$var wire 1 @ bus1~output_o $end
$var wire 1 A bus2~output_o $end
$var wire 1 B bus3~output_o $end
$var wire 1 C bus4~output_o $end
$var wire 1 D bus5~output_o $end
$var wire 1 E bus6~output_o $end
$var wire 1 F bus7~output_o $end
$var wire 1 G CLOCK~input_o $end
$var wire 1 H CLOCK~inputclkctrl_outclk $end
$var wire 1 I bus0~input_o $end
$var wire 1 J RESET~input_o $end
$var wire 1 K RESET~inputclkctrl_outclk $end
$var wire 1 L BR_IN~input_o $end
$var wire 1 M inst|inst5~q $end
$var wire 1 N BR_OUT~input_o $end
$var wire 1 O bus1~input_o $end
$var wire 1 P inst|inst9~feeder_combout $end
$var wire 1 Q inst|inst9~q $end
$var wire 1 R bus2~input_o $end
$var wire 1 S inst|inst18~feeder_combout $end
$var wire 1 T inst|inst18~q $end
$var wire 1 U bus3~input_o $end
$var wire 1 V inst|inst25~feeder_combout $end
$var wire 1 W inst|inst25~q $end
$var wire 1 X bus4~input_o $end
$var wire 1 Y inst1|inst5~feeder_combout $end
$var wire 1 Z inst1|inst5~q $end
$var wire 1 [ bus5~input_o $end
$var wire 1 \ inst1|inst9~q $end
$var wire 1 ] bus6~input_o $end
$var wire 1 ^ inst1|inst18~feeder_combout $end
$var wire 1 _ inst1|inst18~q $end
$var wire 1 ` bus7~input_o $end
$var wire 1 a inst1|inst25~q $end
$upscope $end
$upscope $end
$enddefinitions $end
#0
$dumpvars
1!
1"
1#
1$
1%
1&
1'
1(
1)
1*
0+
0,
1-
1.
1/
10
11
12
13
14
05
16
x7
18
19
1:
0;
z<
z=
z>
z?
z@
zA
zB
zC
zD
zE
zF
0G
0H
1I
0J
0K
1L
0M
1N
1O
1P
0Q
1R
1S
0T
1U
1V
0W
1X
1Y
0Z
1[
0\
1]
1^
0_
1`
0a
$end
#25000
1+
1G
1H
#50000
0+
0G
0H
#75000
0'
0(
0)
0*
1+
01
02
03
04
1G
0`
0]
0[
0X
1H
0^
0Y
#100000
0+
0G
0H
#125000
1+
1G
1H
#150000
0"
1'
1(
1)
1*
0+
11
12
13
14
0G
1`
1]
1[
1X
0N
0H
0F
0E
0D
0C
0B
0A
0@
0?
x4
x3
x2
x1
x0
x/
x.
x-
1^
1Y
xI
xO
xR
xU
xX
x[
x]
x`
xP
xS
xV
xY
x^
#175000
1+
1G
1H
#200000
0+
0G
0H
#225000
0#
0$
0%
0&
1"
1+
0-
0.
0/
00
1G
1N
0U
0R
0O
0I
1H
zF
zE
zD
zC
zB
zA
z@
z?
14
13
12
11
0V
0S
0P
1X
1[
1]
1`
1Y
1^
#250000
0+
0G
0H
#275000
1+
1G
1H
#300000
1#
1$
1%
1&
0+
1-
1.
1/
10
0G
1U
1R
1O
1I
0H
1V
1S
1P
#325000
1+
1G
1H
#350000
0+
0G
0H
#375000
0'
0(
0)
0*
0"
0#
0$
0%
0&
1+
01
02
03
04
0-
0.
0/
00
1G
0U
0R
0O
0I
0N
0`
0]
0[
0X
1H
0F
0E
0D
0C
0B
0A
0@
0?
0V
0S
0P
0^
0Y
#380000
1,
1J
1K
#400000
0+
0G
0H
#425000
1+
1G
1H
#450000
0!
1'
1(
1)
1*
1"
0+
x1
x2
x3
x4
0G
1N
x`
x]
x[
xX
0L
0H
zF
zE
zD
zC
zB
zA
z@
z?
14
13
12
11
x^
xY
1X
1[
1]
1`
1Y
1^
#475000
1+
1G
1H
#500000
0+
0G
0H
#525000
1#
1$
1%
1&
0'
0(
0)
0*
1+
1-
1.
1/
10
01
02
03
04
1G
0`
0]
0[
0X
1U
1R
1O
1I
1H
0^
0Y
1V
1S
1P
#550000
0+
0G
0H
#575000
1+
1G
1H
#600000
1!
1'
1(
1)
1*
0+
11
12
13
14
0G
1`
1]
1[
1X
1L
0H
1^
1Y
#625000
1+
1G
1H
#650000
0+
0G
0H
#675000
0"
0'
0(
0)
0*
1+
01
02
03
04
1G
0`
0]
0[
0X
0N
1H
0F
0E
0D
0C
0B
0A
0@
0?
x0
x/
x.
x-
0^
0Y
xI
xO
xR
xU
xP
xS
xV
#680000
0,
0J
0K
#700000
0+
0G
0H
#725000
1+
1G
1H
#750000
0#
0$
0%
0&
1'
1(
1)
1*
0+
0-
0.
0/
00
x1
x2
x3
x4
0G
x`
x]
x[
xX
0U
0R
0O
0I
0H
x^
xY
0V
0S
0P
#775000
1+
1G
1H
#800000
0+
0G
0H
#825000
1"
0'
0(
0)
0*
1+
01
02
03
04
1G
0`
0]
0[
0X
1N
1H
zF
zE
zD
zC
zB
zA
z@
z?
0^
0Y
#850000
0+
0G
0H
#875000
1+
1G
1H
#900000
0!
1#
1$
1%
1&
1'
1(
1)
1*
0+
1-
1.
1/
10
11
12
13
14
0G
1`
1]
1[
1X
1U
1R
1O
1I
0L
0H
1^
1Y
1V
1S
1P
#925000
1+
1G
1H
1a
1_
1\
1Z
1W
1T
1Q
1M
#950000
0+
0G
0H
#975000
0"
0#
0$
0%
0&
1+
0-
0.
0/
00
1G
0U
0R
0O
0I
0N
1H
1F
1E
1D
1C
1B
1A
1@
1?
x0
x/
x.
x-
0V
0S
0P
xI
xO
xR
xU
xP
xS
xV
0M
0?
0-
0I
