simulation/qsim/sap_wr.msim.vcd
$comment
	File created using the following command:
		vcd file sap_wr.msim.vcd -direction
$end
$date
	Tue Mar 14 19:59:46 2023
$end
$version
	ModelSim Version 10.5b
$end
$timescale
	1ps
$end

$scope module cp_program_counter_vlg_vec_tst $end
$var reg 1 ! treg_BUS_0 $end
$var reg 1 " treg_BUS_1 $end
$var reg 1 # treg_BUS_2 $end
$var reg 1 $ treg_Bus_3 $end
$var reg 1 % CLOCK $end
$var reg 1 & JMP $end
$var reg 1 ' PC_INC $end
$var reg 1 ( PC_OUT $end
$var reg 1 ) RESET $end
$var wire 1 * BUS_0 $end
$var wire 1 + BUS_1 $end
$var wire 1 , BUS_2 $end
$var wire 1 - Bus_3 $end

$scope module i1 $end
$var wire 1 . gnd $end
$var wire 1 / vcc $end
$var wire 1 0 unknown $end
$var tri1 1 1 devclrn $end
$var tri1 1 2 devpor $end
$var tri1 1 3 devoe $end
$var wire 1 4 ~QUARTUS_CREATED_GND~I_combout $end
$var wire 1 5 ~QUARTUS_CREATED_UNVM~~busy $end
$var wire 1 6 ~QUARTUS_CREATED_ADC1~~eoc $end
$var wire 1 7 ~QUARTUS_CREATED_ADC2~~eoc $end
$var wire 1 8 Bus_3~output_o $end
$var wire 1 9 BUS_2~output_o $end
$var wire 1 : BUS_0~output_o $end
$var wire 1 ; BUS_1~output_o $end
$var wire 1 < CLOCK~input_o $end
$var wire 1 = CLOCK~inputclkctrl_outclk $end
$var wire 1 > RESET~input_o $end
$var wire 1 ? Bus_3~input_o $end
$var wire 1 @ JMP~input_o $end
$var wire 1 A BUS_2~input_o $end
$var wire 1 B inst2|inst29~0_combout $end
$var wire 1 C inst2|inst27~0_combout $end
$var wire 1 D PC_INC~input_o $end
$var wire 1 E BUS_1~input_o $end
$var wire 1 F BUS_0~input_o $end
$var wire 1 G inst2|inst27~1_combout $end
$var wire 1 H inst2|inst27~2_combout $end
$var wire 1 I inst2|inst27~q $end
$var wire 1 J inst2|inst28~7_combout $end
$var wire 1 K inst2|inst28~8_combout $end
$var wire 1 L inst2|inst28~q $end
$var wire 1 M inst2|inst30~2_combout $end
$var wire 1 N inst2|inst29~1_combout $end
$var wire 1 O inst2|inst29~q $end
$var wire 1 P inst2|inst30~3_combout $end
$var wire 1 Q inst2|inst30~4_combout $end
$var wire 1 R inst2|inst30~q $end
$var wire 1 S PC_OUT~input_o $end
$upscope $end
$upscope $end
$enddefinitions $end
#0
$dumpvars
z!
z"
z#
z$
0%
0&
1'
0(
0)
0*
0+
0,
0-
0.
1/
x0
11
12
13
04
z5
z6
z7
08
09
0:
0;
0<
0=
0>
0?
0@
0A
0B
1C
1D
0E
0F
0G
1H
0I
0J
0K
0L
0M
0N
0O
0P
0Q
0R
0S
$end
#25000
1%
1<
1=
#50000
0%
0<
0=
1I
1:
1J
1*
0H
1F
1K
#75000
1%
1<
1=
#100000
0%
0<
0=
0I
1L
1;
0:
0J
1+
0*
1H
0K
0F
1E
1K
#125000
1%
1<
1=
#150000
0%
0<
0=
1I
1:
1M
1J
1*
0H
1F
1N
0K
#175000
1%
1<
1=
#200000
0%
0<
0=
0I
0L
1O
19
0;
0:
0M
0J
1P
1,
0+
0*
1H
1K
0N
0F
0E
1A
0P
1N
0K
1Q
0Q
#225000
1%
1<
1=
#240000
1)
1>
0C
0N
0H
#250000
0%
0<
0=
0O
09
0,
0A
#260000
0)
0>
1C
1H
#275000
1%
1<
1=
#300000
0%
0<
0=
1I
1:
1J
1*
0H
1F
1K
#325000
1%
1<
1=
#350000
0%
0<
0=
0I
1L
1;
0:
0J
1+
0*
1H
0K
0F
1E
1K
#375000
1%
1<
1=
#390000
0'
1(
1S
0D
z;
z:
z9
z8
z+
z*
z,
z-
0H
z?
zA
zF
zE
#400000
1$
1#
1"
1!
0%
1-
1,
1+
1*
0<
1F
1E
1A
1?
0=
#425000
1%
1<
1=
#440000
1&
1@
1J
1G
0C
1B
1Q
0K
1K
1H
1N
#450000
z$
z#
z"
z!
0%
z-
z,
z+
z*
0<
zF
zE
zA
z?
0=
xG
xJ
xB
xQ
xH
xK
xN
1I
1O
1R
#460000
1'
0(
0&
0@
0S
1D
1;
1:
19
18
1J
0G
1C
0B
1M
1+
1*
1,
1-
0Q
1?
1A
1F
1E
0K
0H
0N
#475000
1%
1<
1=
#500000
0%
0<
0=
0I
0L
0O
0R
08
09
0;
0:
0M
0J
0-
0,
0+
0*
1H
1K
1N
0F
0E
0A
0?
0N
0K
#525000
1%
1<
1=
#550000
0%
0<
0=
1I
1:
1J
1*
0H
1F
1K
#575000
1%
1<
1=
#600000
0%
0<
0=
0I
1L
1;
0:
0J
1+
0*
1H
0K
0F
1E
1K
#625000
1%
1<
1=
#650000
0%
0<
0=
1I
1:
1M
1J
1*
0H
1F
1N
0K
#675000
1%
1<
1=
#700000
0%
0<
0=
0I
0L
1O
19
0;
0:
0M
0J
1P
1,
0+
0*
1H
1K
0N
0F
0E
1A
0P
1N
0K
1Q
0Q
#725000
1%
1<
1=
#750000
0%
0<
0=
1I
1:
1J
1*
0H
1F
1K
#775000
1%
1<
1=
#800000
0%
0<
0=
0I
1L
1;
0:
0J
1+
0*
1H
0K
0F
1E
1K
#825000
1%
1<
1=
#850000
0%
0<
0=
1I
1:
1M
1J
1*
0H
1F
1P
0N
0K
1Q
#875000
1%
1<
1=
#900000
0%
0<
0=
0I
0L
0O
1R
18
09
0;
0:
0M
0J
1-
0,
0+
0*
1H
1K
1N
0F
0E
0A
1?
0N
0K
#925000
1%
1<
1=
#950000
0%
0<
0=
1I
1:
1J
1*
0H
1F
1K
#975000
1%
1<
1=
