simulation/qsim/sap_wr.msim.vcd
$comment
	File created using the following command:
		vcd file sap_wr.msim.vcd -direction
$end
$date
	Fri Mar 10 19:03:51 2023
$end
$version
	ModelSim Version 10.5b
$end
$timescale
	1ps
$end

$scope module ci_74LS173A_vlg_vec_tst $end
$var reg 1 ! clear $end
$var reg 1 " clock $end
$var reg 1 # D0 $end
$var reg 1 $ D1 $end
$var reg 1 % D2 $end
$var reg 1 & D3 $end
$var reg 1 ' IE1 $end
$var reg 1 ( IE2 $end
$var reg 1 ) OE1 $end
$var reg 1 * OE2 $end
$var wire 1 + Q0 $end
$var wire 1 , Q1 $end
$var wire 1 - Q2 $end
$var wire 1 . Q3 $end

$scope module i1 $end
$var wire 1 / gnd $end
$var wire 1 0 vcc $end
$var wire 1 1 unknown $end
$var tri1 1 2 devclrn $end
$var tri1 1 3 devpor $end
$var tri1 1 4 devoe $end
$var wire 1 5 ~QUARTUS_CREATED_GND~I_combout $end
$var wire 1 6 ~QUARTUS_CREATED_UNVM~~busy $end
$var wire 1 7 ~QUARTUS_CREATED_ADC1~~eoc $end
$var wire 1 8 ~QUARTUS_CREATED_ADC2~~eoc $end
$var wire 1 9 Q0~output_o $end
$var wire 1 : Q1~output_o $end
$var wire 1 ; Q2~output_o $end
$var wire 1 < Q3~output_o $end
$var wire 1 = OE2~input_o $end
$var wire 1 > clock~input_o $end
$var wire 1 ? clock~inputclkctrl_outclk $end
$var wire 1 @ D0~input_o $end
$var wire 1 A clear~input_o $end
$var wire 1 B clear~inputclkctrl_outclk $end
$var wire 1 C IE2~input_o $end
$var wire 1 D IE1~input_o $end
$var wire 1 E inst~combout $end
$var wire 1 F inst5~q $end
$var wire 1 G OE1~input_o $end
$var wire 1 H inst10~0_combout $end
$var wire 1 I D1~input_o $end
$var wire 1 J inst9~q $end
$var wire 1 K inst13~0_combout $end
$var wire 1 L D2~input_o $end
$var wire 1 M inst18~q $end
$var wire 1 N inst20~0_combout $end
$var wire 1 O D3~input_o $end
$var wire 1 P inst25~q $end
$var wire 1 Q inst27~0_combout $end
$upscope $end
$upscope $end
$enddefinitions $end
#0
$dumpvars
1!
0"
0#
0$
0%
0&
0'
0(
0)
0*
0+
0,
0-
0.
0/
10
x1
12
13
14
05
z6
z7
z8
09
0:
0;
0<
0=
0>
0?
0@
1A
1B
0C
0D
1E
0F
0G
1H
0I
0J
1K
0L
0M
1N
0O
0P
1Q
$end
#50000
1"
1>
1?
#70000
0!
0A
0B
#100000
0"
0>
0?
#140000
1'
1D
0E
#150000
1"
1>
1?
#190000
0'
0D
1E
#200000
0"
0>
0?
#250000
1"
1>
1?
#300000
0"
0>
0?
#330000
1(
1C
0E
#350000
1"
1>
1?
#400000
0(
0"
0>
0C
0?
1E
#450000
1"
1>
1?
#500000
0"
0>
0?
#550000
1"
1>
1?
#600000
0"
0>
0?
#640000
1#
1&
1O
1@
#650000
1"
1>
1?
1P
1F
0Q
0H
19
1<
1.
1+
#700000
0"
0>
0?
#720000
0&
0O
#750000
1"
1>
1?
0P
1Q
0<
0.
#800000
0"
0>
0?
#830000
1(
1C
0E
#840000
0#
0@
#850000
1"
1>
1?
#900000
1!
0(
0"
0>
0C
1A
1B
0?
1E
0F
1H
09
0+
#950000
0!
1"
1>
0A
0B
1?
