simulation/qsim/sap_wr.msim.vcd
$comment
	File created using the following command:
		vcd file sap_wr.msim.vcd -direction
$end
$date
	Tue Mar 14 22:42:08 2023
$end
$version
	ModelSim Version 10.5b
$end
$timescale
	1ps
$end

$scope module ci_74LS157_vlg_vec_tst $end
$var reg 1 ! E $end
$var reg 1 " l0a $end
$var reg 1 # l0b $end
$var reg 1 $ l0c $end
$var reg 1 % l0d $end
$var reg 1 & l1a $end
$var reg 1 ' l1b $end
$var reg 1 ( l1c $end
$var reg 1 ) l1d $end
$var reg 1 * S $end
$var wire 1 + Za $end
$var wire 1 , Zb $end
$var wire 1 - Zc $end
$var wire 1 . Zd $end

$scope module i1 $end
$var wire 1 / gnd $end
$var wire 1 0 vcc $end
$var wire 1 1 unknown $end
$var tri1 1 2 devclrn $end
$var tri1 1 3 devpor $end
$var tri1 1 4 devoe $end
$var wire 1 5 ~QUARTUS_CREATED_GND~I_combout $end
$var wire 1 6 ~QUARTUS_CREATED_UNVM~~busy $end
$var wire 1 7 ~QUARTUS_CREATED_ADC1~~eoc $end
$var wire 1 8 ~QUARTUS_CREATED_ADC2~~eoc $end
$var wire 1 9 Za~output_o $end
$var wire 1 : Zb~output_o $end
$var wire 1 ; Zc~output_o $end
$var wire 1 < Zd~output_o $end
$var wire 1 = l1a~input_o $end
$var wire 1 > S~input_o $end
$var wire 1 ? E~input_o $end
$var wire 1 @ l0a~input_o $end
$var wire 1 A inst10~0_combout $end
$var wire 1 B l0b~input_o $end
$var wire 1 C l1b~input_o $end
$var wire 1 D inst37~0_combout $end
$var wire 1 E l1c~input_o $end
$var wire 1 F l0c~input_o $end
$var wire 1 G inst36~0_combout $end
$var wire 1 H l1d~input_o $end
$var wire 1 I l0d~input_o $end
$var wire 1 J inst35~0_combout $end
$upscope $end
$upscope $end
$enddefinitions $end
#0
$dumpvars
1!
1"
1#
1$
1%
0&
0'
0(
0)
0*
0+
0,
0-
0.
0/
10
x1
12
13
14
05
z6
z7
z8
09
0:
0;
0<
0=
0>
1?
1@
0A
1B
0C
0D
0E
1F
0G
0H
1I
0J
$end
#50000
1&
1'
1(
1)
1H
1E
1C
1=
#100000
0"
0#
0$
0%
0I
0F
0B
0@
#150000
1#
1%
1I
1B
#200000
0!
1"
1$
0#
0%
0I
0B
1F
1@
0?
1G
1A
19
1;
1-
1+
#220000
1*
1>
1J
1D
1:
1<
1.
1,
#250000
0&
0'
0(
0)
0"
0$
0F
0@
0H
0E
0C
0=
0G
0A
0J
0D
0:
0<
09
0;
0-
0+
0.
0,
#275000
1&
1'
1(
1)
1H
1E
1C
1=
1J
1G
1D
1A
19
1:
1;
1<
1.
1-
1,
1+
#300000
1#
1%
1I
1B
#350000
0&
0'
0(
0)
0#
0%
0I
0B
0H
0E
0C
0=
0J
0D
0G
0A
09
0;
0:
0<
0.
0,
0-
0+
#375000
1&
1'
1(
1)
1H
1E
1C
1=
1J
1G
1D
1A
19
1:
1;
1<
1.
1-
1,
1+
#400000
1"
1$
1#
1%
1I
1B
1F
1@
#425000
0&
0'
0(
0)
0H
0E
0C
0=
0J
0G
0D
0A
09
0:
0;
0<
0.
0-
0,
0+
#450000
0"
0$
1&
1'
1(
1)
1H
1E
1C
1=
0F
0@
1J
1G
1D
1A
19
1:
1;
1<
1.
1-
1,
1+
#500000
0#
0%
1"
1$
0&
0'
0(
0)
0H
0E
0C
0=
1F
1@
0I
0B
0J
0G
0D
0A
09
0:
0;
0<
0.
0-
0,
0+
#525000
1&
1'
1(
1)
1H
1E
1C
1=
1J
1G
1D
1A
19
1:
1;
1<
1.
1-
1,
1+
#550000
0"
0$
0&
0'
0(
0)
0H
0E
0C
0=
0F
0@
0J
0G
0D
0A
09
0:
0;
0<
0.
0-
0,
0+
#575000
1&
1'
1(
1)
1H
1E
1C
1=
1J
1G
1D
1A
19
1:
1;
1<
1.
1-
1,
1+
#600000
1"
1$
0&
0'
0(
0)
0H
0E
0C
0=
1F
1@
0J
0G
0D
0A
09
0:
0;
0<
0.
0-
0,
0+
#620000
0*
0>
1G
1A
19
1;
1-
1+
#625000
1&
1'
1(
1)
1H
1E
1C
1=
#650000
1#
1%
1I
1B
1J
1D
1:
1<
1.
1,
#675000
0&
0'
0(
0)
0H
0E
0C
0=
#750000
0#
0%
0I
0B
0J
0D
0:
0<
0.
0,
#800000
0"
0$
1&
1'
1(
1)
1#
1%
1I
1B
1H
1E
1C
1=
0F
0@
1J
1D
0G
0A
09
0;
1:
1<
1.
1,
0-
0+
#825000
0&
0'
0(
0)
0H
0E
0C
0=
#875000
1&
1'
1(
1)
1H
1E
1C
1=
#900000
0#
0%
0I
0B
0J
0D
0:
0<
0.
0,
#950000
1#
1%
1I
1B
1J
1D
1:
1<
1.
1,
