simulation/qsim/sap_wr.msim.vcd
$comment
	File created using the following command:
		vcd file sap_wr.msim.vcd -direction
$end
$date
	Fri Mar 17 22:07:23 2023
$end
$version
	ModelSim Version 10.5b
$end
$timescale
	1ps
$end

$scope module cp_instruction_register_vlg_vec_tst $end
$var reg 1 ! treg_bus0 $end
$var reg 1 " treg_bus1 $end
$var reg 1 # treg_bus2 $end
$var reg 1 $ treg_bus3 $end
$var reg 1 % treg_bus4 $end
$var reg 1 & treg_bus5 $end
$var reg 1 ' treg_bus6 $end
$var reg 1 ( treg_bus7 $end
$var reg 1 ) CLOCK $end
$var reg 1 * IR_IN $end
$var reg 1 + IR_OUT $end
$var reg 1 , RESET $end
$var wire 1 - bus0 $end
$var wire 1 . bus1 $end
$var wire 1 / bus2 $end
$var wire 1 0 bus3 $end
$var wire 1 1 bus4 $end
$var wire 1 2 bus5 $end
$var wire 1 3 bus6 $end
$var wire 1 4 bus7 $end

$scope module i1 $end
$var wire 1 5 gnd $end
$var wire 1 6 vcc $end
$var wire 1 7 unknown $end
$var tri1 1 8 devclrn $end
$var tri1 1 9 devpor $end
$var tri1 1 : devoe $end
$var wire 1 ; bus0~input_o $end
$var wire 1 < bus1~input_o $end
$var wire 1 = bus2~input_o $end
$var wire 1 > bus3~input_o $end
$var wire 1 ? ~QUARTUS_CREATED_GND~I_combout $end
$var wire 1 @ ~QUARTUS_CREATED_UNVM~~busy $end
$var wire 1 A ~QUARTUS_CREATED_ADC1~~eoc $end
$var wire 1 B ~QUARTUS_CREATED_ADC2~~eoc $end
$var wire 1 C bus0~output_o $end
$var wire 1 D bus1~output_o $end
$var wire 1 E bus2~output_o $end
$var wire 1 F bus3~output_o $end
$var wire 1 G bus4~output_o $end
$var wire 1 H bus5~output_o $end
$var wire 1 I bus6~output_o $end
$var wire 1 J bus7~output_o $end
$var wire 1 K IR_OUT~input_o $end
$var wire 1 L CLOCK~input_o $end
$var wire 1 M CLOCK~inputclkctrl_outclk $end
$var wire 1 N bus4~input_o $end
$var wire 1 O RESET~input_o $end
$var wire 1 P RESET~inputclkctrl_outclk $end
$var wire 1 Q IR_IN~input_o $end
$var wire 1 R inst1|inst5~q $end
$var wire 1 S bus5~input_o $end
$var wire 1 T inst1|inst9~q $end
$var wire 1 U bus6~input_o $end
$var wire 1 V inst1|inst18~feeder_combout $end
$var wire 1 W inst1|inst18~q $end
$var wire 1 X bus7~input_o $end
$var wire 1 Y inst1|inst25~feeder_combout $end
$var wire 1 Z inst1|inst25~q $end
$upscope $end
$upscope $end
$enddefinitions $end
#0
$dumpvars
1!
0"
1#
0$
1%
0&
1'
0(
0)
1*
0+
0,
x-
0.
x/
00
x1
02
x3
04
05
16
x7
18
19
1:
x;
0<
x=
0>
0?
z@
zA
zB
0C
0D
0E
0F
0G
0H
0I
0J
0K
0L
0M
xN
0O
0P
1Q
0R
0S
0T
xU
xV
0W
0X
0Y
0Z
$end
#25000
1)
1L
1M
#50000
0!
0#
0%
0'
0*
0)
0-
0/
01
03
0L
0Q
0U
0N
0=
0;
0M
0V
#65000
1"
1$
1&
1(
1+
x.
x0
x2
x4
xX
xS
x>
x<
1K
zJ
zI
zH
zG
zC
zD
zE
zF
14
12
1.
10
xY
1>
1<
1S
1X
1Y
#75000
1)
1L
1M
1Z
1T
#100000
1!
1#
1%
1'
1*
0)
1-
1/
11
13
0L
1Q
1U
1N
1=
1;
0M
1V
#125000
1)
1L
1M
#150000
0!
0#
0%
0'
0)
0-
0/
01
03
0L
0U
0N
0=
0;
0M
0V
#175000
1)
1L
1M
#200000
0*
1!
1#
1%
1'
0)
1-
1/
11
13
0L
1U
1N
1=
1;
0Q
0M
1V
#225000
1)
1L
1M
1W
1R
#250000
0)
0L
0M
#260000
0"
0$
0&
0(
0+
0.
00
02
04
0X
0S
0>
0<
0K
1J
1I
1H
1G
0C
0D
0E
0F
x4
x2
x-
x/
0Y
x=
x;
xS
xX
xY
#275000
1)
1L
1M
xZ
xT
xH
xJ
#300000
1*
0!
0#
0%
0'
0)
0-
0/
x1
x3
0L
xU
xN
0=
0;
1Q
0M
xV
#325000
1)
1L
1M
#350000
0)
0L
0M
#375000
1)
1L
1M
#400000
1!
1#
1%
1'
0)
x-
x/
11
13
0L
1U
1N
x=
x;
0M
1V
#425000
1)
1L
1M
#450000
0)
0L
0M
#455000
1"
1$
1&
1(
1+
x.
x0
x>
x<
1K
zJ
zI
zH
zG
zC
zD
zE
zF
14
12
1-
1.
1/
10
1>
1=
1<
1;
1S
1X
1Y
#475000
1)
1L
1M
#500000
0!
0#
0%
0'
0)
0-
0/
01
03
0L
0U
0N
0=
0;
0M
0V
#520000
0"
0$
0&
0(
0.
00
02
04
0X
0S
0>
0<
0Y
#525000
1)
1L
1M
#550000
0)
0L
0M
#575000
1)
1L
1M
#585000
0+
1"
1$
1&
1(
1.
10
12
14
1X
1S
1>
1<
0K
xJ
1I
xH
1G
0C
0D
0E
0F
x4
x3
x2
x1
x.
x0
1Y
x>
x<
xN
xS
xU
xX
xV
xY
#600000
0)
0L
0M
#625000
1)
1L
1M
#650000
0)
0L
0M
#675000
1)
1L
1M
#700000
0*
0)
0L
0Q
0M
#715000
1+
1K
zJ
zI
zH
zG
zC
zD
zE
zF
14
03
12
01
1.
10
1>
1<
0N
1S
0U
1X
0V
1Y
#725000
1)
1L
1M
1Z
0W
1T
0R
#750000
1!
1#
1%
1'
0)
1-
1/
11
13
0L
1U
1N
1=
1;
0M
1V
#775000
1)
1L
1M
1W
1R
#780000
0"
0$
0&
0(
0+
0.
00
02
04
0X
0S
0>
0<
0K
1J
1I
1H
1G
0C
0D
0E
0F
x4
x2
x-
x/
0Y
x=
x;
xS
xX
xY
#800000
1*
0!
0#
0%
0'
0)
0-
0/
x1
x3
0L
xU
xN
0=
0;
1Q
0M
xV
#825000
1)
1L
1M
#845000
1+
1K
zJ
zI
zH
zG
zC
zD
zE
zF
04
03
02
01
0N
0S
0U
0X
0V
0Y
#850000
0)
0L
0M
#875000
1)
1L
1M
#900000
0*
1!
1#
1%
1'
0)
1-
1/
11
13
0L
1U
1N
1=
1;
0Q
0M
1V
#910000
1"
1$
1&
1(
1.
10
12
14
1X
1S
1>
1<
1Y
#925000
1)
1L
1M
#950000
0!
0#
0%
0'
0)
0-
0/
01
03
0L
0U
0N
0=
0;
0M
0V
#975000
0+
1)
1L
1M
0K
1J
1I
1H
1G
0C
0D
0E
0F
x3
x1
x.
x0
x>
x<
xN
xU
xV
0W
0R
0G
0I
01
03
0U
0N
0V
