simulation/qsim/sap_wr.msim.vcd
$comment
	File created using the following command:
		vcd file sap_wr.msim.vcd -direction
$end
$date
	Fri Mar 17 18:43:52 2023
$end
$version
	ModelSim Version 10.5b
$end
$timescale
	1ps
$end

$scope module ci_74LS138_vlg_vec_tst $end
$var reg 1 ! A $end
$var reg 1 " B $end
$var reg 1 # C $end
$var reg 1 $ G1 $end
$var reg 1 % G2A $end
$var reg 1 & G2B $end
$var wire 1 ' Y0 $end
$var wire 1 ( Y1 $end
$var wire 1 ) Y2 $end
$var wire 1 * Y3 $end
$var wire 1 + Y4 $end
$var wire 1 , Y5 $end
$var wire 1 - Y6 $end
$var wire 1 . Y7 $end

$scope module i1 $end
$var wire 1 / gnd $end
$var wire 1 0 vcc $end
$var wire 1 1 unknown $end
$var tri1 1 2 devclrn $end
$var tri1 1 3 devpor $end
$var tri1 1 4 devoe $end
$var wire 1 5 ~QUARTUS_CREATED_GND~I_combout $end
$var wire 1 6 ~QUARTUS_CREATED_UNVM~~busy $end
$var wire 1 7 ~QUARTUS_CREATED_ADC1~~eoc $end
$var wire 1 8 ~QUARTUS_CREATED_ADC2~~eoc $end
$var wire 1 9 Y0~output_o $end
$var wire 1 : Y1~output_o $end
$var wire 1 ; Y2~output_o $end
$var wire 1 < Y3~output_o $end
$var wire 1 = Y4~output_o $end
$var wire 1 > Y5~output_o $end
$var wire 1 ? Y6~output_o $end
$var wire 1 @ Y7~output_o $end
$var wire 1 A A~input_o $end
$var wire 1 B G2A~input_o $end
$var wire 1 C G2B~input_o $end
$var wire 1 D G1~input_o $end
$var wire 1 E inst~0_combout $end
$var wire 1 F C~input_o $end
$var wire 1 G B~input_o $end
$var wire 1 H inst~combout $end
$var wire 1 I inst1~0_combout $end
$var wire 1 J inst1~combout $end
$var wire 1 K inst2~combout $end
$var wire 1 L inst3~combout $end
$var wire 1 M inst4~combout $end
$var wire 1 N inst5~combout $end
$var wire 1 O inst6~combout $end
$var wire 1 P inst7~combout $end
$upscope $end
$upscope $end
$enddefinitions $end
#0
$dumpvars
x!
x"
x#
x$
1%
0&
0'
0(
0)
0*
0+
0,
0-
0.
0/
10
x1
12
13
14
05
z6
z7
z8
09
0:
0;
0<
0=
0>
0?
0@
xA
1B
0C
xD
0E
xF
xG
0H
0I
0J
0K
0L
0M
0N
0O
0P
$end
#70000
0%
1&
1C
0B
#150000
1%
1B
#250000
0$
x&
x%
xB
xC
0D
#350000
0!
0"
0#
1$
0&
0%
0B
0C
1D
0F
0G
0A
1E
1H
19
1'
#370000
1!
1A
1I
0E
1J
0H
09
1:
1(
0'
#390000
1"
0!
0A
1G
0I
1E
1L
0J
0:
1<
1*
0(
0L
1K
1;
0<
0*
1)
#410000
1!
1A
1I
0E
1L
0K
0;
1<
1*
0)
#430000
1#
0"
0!
0A
0G
1F
0I
1E
1N
0L
0<
1>
1,
0*
0N
1M
1=
0>
0,
1+
#450000
1!
1A
1I
0E
1N
0M
0=
1>
1,
0+
#470000
1"
0!
0A
1G
0I
1E
1P
0N
0>
1@
1.
0,
0P
1O
1?
0@
0.
1-
#490000
1!
1A
1I
0E
1P
0O
0?
1@
1.
0-
#510000
0$
0#
0"
0!
0A
0G
0F
0D
0I
0P
1J
1:
0@
0.
1(
0J
0:
0(
#530000
1$
1!
1A
1D
1I
1J
1:
1(
#550000
1%
1"
0$
0!
0A
0D
1G
1B
0I
1L
0J
0:
1<
1*
0(
0L
0<
0*
#570000
1$
1!
1A
1D
#590000
1&
1#
0%
0"
0$
0!
0A
0D
0G
0B
1F
1C
#610000
1$
1!
1A
1D
#630000
1%
1"
0$
0!
0A
0D
1G
1B
#650000
1$
1!
1A
1D
#670000
0&
0#
0%
0"
0$
0!
0A
0D
0G
0B
0F
0C
#690000
1$
1!
1A
1D
1I
1J
1:
1(
#710000
1%
1"
0$
0!
0A
0D
1G
1B
0I
1L
0J
0:
1<
1*
0(
0L
0<
0*
#730000
1$
1!
1A
1D
#750000
1&
1#
0%
0"
0$
0!
0A
0D
0G
0B
1F
1C
#770000
1$
1!
1A
1D
#790000
1%
1"
0$
0!
0A
0D
1G
1B
#810000
1$
1!
1A
1D
#830000
0&
0#
0%
0"
0$
0!
0A
0D
0G
0B
0F
0C
